
<svg width="55px" height="75px" viewBox="0 0 55 75" version="1.1" xmlns="http://www.w3.org/2000/svg" xmlns:xlink="http://www.w3.org/1999/xlink">
    <!-- Generator: Sketch 48.2 (47327) - http://www.bohemiancoding.com/sketch -->
    <desc>Created with Sketch.</desc>
    <defs></defs>
    <g id="Page-1" stroke="none" stroke-width="1" fill="none" fill-rule="evenodd">
        <g id="Desktop-HD-Copy" transform="translate(-694.000000, -3271.000000)" fill="#000000" fill-rule="nonzero">
            <g id="drop" transform="translate(694.000000, 3271.000000)">
                <path d="M34.0330189,8.26877087 C32.2955975,5.72177739 30.7625786,3.37854339 29.331761,1.23906887 C29.1273585,0.93342965 28.8207547,0.627790433 28.5141509,0.424030954 C27.2877358,-0.391006959 25.6525157,0.0165119977 24.8349057,1.23906887 C23.5062893,3.37854339 21.9732704,5.61989765 20.1336478,8.26877087 C12.0597484,20.0868206 0,37.915775 0,48.1037489 C0,55.5409698 3.06603774,62.2650326 7.97169811,67.1552601 C12.8773585,71.9436078 19.6226415,75 27.0833333,75 C34.5440252,75 41.2893082,71.9436078 46.1949686,67.0533803 C51.1006289,62.1631529 54.1666667,55.4390901 54.1666667,48.0018691 C54.1666667,37.8138952 42.1069182,20.0868206 34.0330189,8.26877087 Z M42.5157233,63.3857097 C38.5298742,67.3590196 33.1132075,69.7022536 27.0833333,69.7022536 C21.0534591,69.7022536 15.6367925,67.2571398 11.6509434,63.3857097 C7.66509434,59.4123999 5.31446541,54.0127737 5.31446541,48.0018691 C5.31446541,39.443971 16.8632075,22.4300546 24.5283019,11.1214036 C25.4481132,9.79696695 26.2657233,8.47253035 27.0833333,7.35185322 C27.9009434,8.47253035 28.7185535,9.79696695 29.6383648,11.1214036 C37.3034591,22.5319343 48.8522013,39.443971 48.8522013,48.0018691 C48.8522013,54.0127737 46.3993711,59.4123999 42.5157233,63.3857097 Z" id="Shape"></path>
                <path d="M43.275882,45.9741653 C41.841822,45.8724759 40.6126278,46.9910598 40.510195,48.4147121 C40.4077621,50.65188 39.6907322,52.7873585 38.5639708,54.6177686 C37.4372094,56.4481787 35.7982838,58.0752099 33.8520596,59.0921044 C32.6228654,59.8039306 32.1107012,61.4309618 32.8277311,62.6512352 C33.6471939,64.0748875 35.2861195,64.4816453 36.5153138,63.7698191 C39.2810008,62.2444774 41.5345235,60.0073095 43.0710163,57.4650732 C44.7099419,54.922837 45.6318375,51.8721535 45.7342704,48.7197805 C45.8367032,47.2961282 44.7099419,46.0758548 43.275882,45.9741653 Z" id="Shape"></path>
            </g>
        </g>
    </g>
</svg>
