<?xml version="1.0" encoding="UTF-8"?>
<svg width="64px" height="63px" viewBox="0 0 64 63" version="1.1" xmlns="http://www.w3.org/2000/svg" xmlns:xlink="http://www.w3.org/1999/xlink">
    <!-- Generator: Sketch 48.2 (47327) - http://www.bohemiancoding.com/sketch -->
    <title>sustainability</title>
    <desc>Created with Sketch.</desc>
    <defs></defs>
    <g id="Page-1" stroke="none" stroke-width="1" fill="none" fill-rule="evenodd">
        <g id="sustainability" fill="#000000" fill-rule="nonzero">
            <path d="M59.03614,43.4001636 C62.0419999,38.8604325 63.6557696,33.5317592 63.6557696,27.9531969 C63.6557696,12.3952776 51.0825258,0 35.8540083,0 C15.1333026,0 1.92285174,21.8925307 10.8735365,40.2355582 C10.430177,40.8747633 10.0991224,41.5964465 9.89795047,42.3858796 L1.89599636,42.3858796 C0.84960948,42.3858796 0,43.239626 0,44.2922034 L0,61.0912215 C0,62.1447809 0.84960948,62.9975453 1.89599636,62.9975453 C4.63378957,62.9975453 37.8090867,62.9995091 39.1289111,63 C42.8803764,63 46.5761776,61.9960257 49.8183655,60.097557 L61.3603591,53.3363179 C65.892098,50.6813092 64.2446368,43.7619872 59.03614,43.4001636 Z M58.7353587,20.6229574 C58.7368236,20.6278667 58.739265,20.6342491 58.7402416,20.6391584 L55.5112373,20.6391584 C53.4140691,20.6391584 51.7080141,18.9223379 51.7080141,16.8142373 L51.7080141,9.82863823 C54.7124091,12.417861 57.4253001,16.459287 58.7353587,20.6229574 Z M35.8540083,3.81264764 C40.1162159,3.81264764 44.2656305,4.93837525 47.9160215,7.07445932 L47.9160215,16.8142373 C47.9160215,21.024547 51.3237368,24.451806 55.5112373,24.451806 L59.6123121,24.451806 C60.7866286,32.5896436 57.8110422,40.5674343 51.865729,45.9275278 C48.2617247,47.3998597 46.1362362,48.9158854 42.1865287,49.3547867 C42.7475639,47.6065458 42.520513,45.9167271 41.6606496,44.4939802 L44.282232,41.2572063 C46.9423885,38.6090708 46.9663144,34.2838808 44.3037165,31.6067797 C43.8510796,31.2744127 41.8662162,28.3773699 37.7490281,28.3773699 L35.4423871,28.3773699 L40.5839894,23.2077616 C42.8906303,20.8885564 42.8847709,17.1387493 40.5839894,14.8278902 L30.2778357,4.46559907 C32.0927775,4.03111634 33.9585003,3.81264764 35.8540083,3.81264764 Z M26.2597689,5.81666862 L37.9028367,17.5246289 C38.726079,18.3518644 38.722661,19.6872238 37.9028367,20.5110228 L31.7705117,26.6772414 C29.752445,28.7087551 31.1821327,32.1900175 34.0405316,32.1900175 L37.7490281,32.1900175 C38.8750048,32.1900175 39.9770557,32.6485565 40.7734425,33.4492811 C41.2026418,33.9932437 42.5136771,34.7252367 42.4951225,36.4572765 C42.4780326,37.791163 41.6806691,38.4313501 41.4106496,38.7642081 L38.7373095,42.0657861 C37.1337936,41.4692928 36.3613326,41.8050964 30.4243201,41.7073991 C29.6054724,41.7073991 28.8457067,41.259661 28.3945347,40.5099942 C28.2187535,40.2164114 28.0205112,39.9409936 27.8017612,39.6827587 L27.8017612,33.7698655 C27.8017612,31.0117592 26.7334018,28.4195909 24.7959016,26.4710462 L14.7729511,16.3935009 C15.5566425,14.9746815 18.8125023,9.10990065 26.2597689,5.81666862 Z M22.1137722,29.166803 C23.3359404,30.3956283 24.0097686,32.0299707 24.0097686,33.7698655 L24.0097686,37.3772999 C21.9697292,36.8240094 20.316897,37.0616248 18.0312522,37.0051666 C16.4868184,37.0051666 15.0976581,37.2835301 13.9174822,37.7980363 C11.3774428,32.0638458 11.2348646,25.6806312 13.1298844,20.1334891 L22.1137722,29.166803 Z M3.79199272,46.1980362 L9.66406369,46.1980362 L9.66406369,59.1848977 L3.79199272,59.1848977 L3.79199272,46.1980362 Z M59.4521558,50.042595 L47.9096739,56.8033431 C45.2465876,58.3625717 42.2104544,59.1873525 39.1289111,59.1873525 L13.4560564,59.1873525 L13.4560564,44.5170543 C13.4853532,44.4645236 12.9775406,40.8143776 18.0312522,40.8143776 C19.9667993,40.9292577 23.8193389,40.2723788 25.1513703,42.4835769 C25.8046907,43.5700292 26.7285189,44.4051198 27.8017612,44.9210988 C29.4511755,45.7188778 30.2172888,45.5195559 36.7417038,45.5195559 C37.8222703,45.5195559 38.7016649,46.4042314 38.7016649,47.4906839 C38.7016649,48.5663355 37.8310594,49.4618118 36.7417038,49.4618118 C34.3388715,49.4618118 28.1699253,49.4618118 25.9438508,49.4618118 C24.8911163,49.4618118 24.0478545,50.3224314 24.0478545,51.3676447 C24.0478545,52.421204 24.8969757,53.2739684 25.9438508,53.2739684 L40.250005,53.2739684 C43.2382866,53.2739684 46.1377009,52.6563647 48.8691466,51.4363764 C49.1601623,51.306277 47.1826231,52.1894798 58.0703197,47.3276914 C58.7934642,47.0051432 59.6518628,47.3011806 60.0258863,48.0012625 C60.4140699,48.7298188 60.1621168,49.6257861 59.4521558,50.042595 Z" id="Shape"></path>
        </g>
    </g>
</svg>